{
	"ScenarioData":
	{
		"Name": "TestScenario",
		"MapModelName": "Map.fbx"
	},
	"PathNames":
	{
		"DatatableFolder": true,
		"ModelFolder": true,
		"TextureFolder": true,
		"JSONFolder": true,
		"MaterialFolder": true,
		"BuildingsDatatableName": "DT_BuildingStats",
		"EventsDatatableName": "NCDEvents",
		"MilestonesDatatableName": "DT_Milestones",
		"PoliciesDatatableName": "DT_Policies",
		"VehiclesDatatableName": "DT_Vehicles",
		"GoalsDatatableName": "DT_ScenarioGoals"
	},
	"InitialValues":
	{
		"InitialPollution": 100,
		"InitialHappiness": 30,
		"InitialPopulation": 20,
		"InitialEmploymentRate": 50
	},
	"Goals":
	{
	}
}